\relax 
\providecommand\hyper@newdestlabel[2]{}
\providecommand{\transparent@use}[1]{}
\providecommand\babel@aux[2]{}
\@nameuse{bbl@beforestart}
\providecommand\HyperFirstAtBeginDocument{\AtBeginDocument}
\HyperFirstAtBeginDocument{\ifx\hyper@anchor\@undefined
\global\let\oldcontentsline\contentsline
\gdef\contentsline#1#2#3#4{\oldcontentsline{#1}{#2}{#3}}
\global\let\oldnewlabel\newlabel
\gdef\newlabel#1#2{\newlabelxx{#1}#2}
\gdef\newlabelxx#1#2#3#4#5#6{\oldnewlabel{#1}{{#2}{#3}}}
\AtEndDocument{\ifx\hyper@anchor\@undefined
\let\contentsline\oldcontentsline
\let\newlabel\oldnewlabel
\fi}
\fi}
\global\let\hyper@last\relax 
\gdef\HyperFirstAtBeginDocument#1{#1}
\providecommand\HyField@AuxAddToFields[1]{}
\providecommand\HyField@AuxAddToCoFields[2]{}
\providecommand\BKM@entry[2]{}
\babel@aux{english}{}
\BKM@entry{id=1,dest={636861707465722E31},srcline={1}}{5068617365205472616E736974696F6E73205C303436205370696E204D6F64656C73}
\BKM@entry{id=2,dest={73656374696F6E2E312E31},srcline={2}}{496E74726F64756374696F6E}
\citation{ising_beitrag_1925}
\citation{peierls_isings_1936}
\citation{onsager_crystal_1944}
\@writefile{toc}{\contentsline {chapter}{\numberline {1}Phase Transitions \& Spin Models}{4}{chapter.1}\protected@file@percent }
\@writefile{lof}{\addvspace {10\p@ }}
\@writefile{lot}{\addvspace {10\p@ }}
\@writefile{toc}{\contentsline {section}{\numberline {1.1}Introduction}{4}{section.1.1}\protected@file@percent }
\citation{baxter_exactly_2007}
\citation{mermin_absence_1966,friedli_statistical_2017}
\BKM@entry{id=3,dest={73656374696F6E2E312E32},srcline={63}}{446566696E6974696F6E7320616E6420436F6E76656E74696F6E73}
\@writefile{lof}{\contentsline {figure}{\numberline {1.1}{\ignorespaces $(a): 1$-dimensional Ising Model. $(b): 2$-dimensional Ising Model. The arrows indicate the direction of the spin, i.e, $\sigma = \pm 1$. The dots indicate that the spins extend to infinity\relax }}{5}{figure.caption.2}\protected@file@percent }
\providecommand*\caption@xref[2]{\@setref\relax\@undefined{#1}}
\newlabel{fig:isingmodel}{{1.1}{5}{$(a): 1$-dimensional Ising Model. $(b): 2$-dimensional Ising Model. The arrows indicate the direction of the spin, i.e, $\sigma = \pm 1$. The dots indicate that the spins extend to infinity\relax }{figure.caption.2}{}}
\newlabel{fig:isingmodel@cref}{{[figure][1][1]1.1}{[1][4][]5}}
\@writefile{toc}{\contentsline {section}{\numberline {1.2}Definitions and Conventions}{5}{section.1.2}\protected@file@percent }
\BKM@entry{id=4,dest={73756273656374696F6E2E312E322E31},srcline={83}}{48616D696C746F6E69616E73}
\BKM@entry{id=5,dest={73756273656374696F6E2E312E322E32},srcline={124}}{426F756E6461727920436F6E646974696F6E73}
\BKM@entry{id=6,dest={73756273656374696F6E2E312E322E33},srcline={127}}{436F7272656C6174696F6E2046756E6374696F6E73}
\@writefile{toc}{\contentsline {subsection}{\numberline {1.2.1}Hamiltonians}{6}{subsection.1.2.1}\protected@file@percent }
\newlabel{eqn:hamilboi}{{1.1}{6}{}{equation.1.2.1}{}}
\newlabel{eqn:hamilboi@cref}{{[equation][1][1]1.1}{[1][6][]6}}
\newlabel{eqn:isingboi}{{1.3}{6}{}{equation.1.2.3}{}}
\newlabel{eqn:isingboi@cref}{{[equation][3][1]1.3}{[1][6][]6}}
\@writefile{toc}{\contentsline {subsection}{\numberline {1.2.2}Boundary Conditions}{6}{subsection.1.2.2}\protected@file@percent }
\@writefile{toc}{\contentsline {subsection}{\numberline {1.2.3}Correlation Functions}{7}{subsection.1.2.3}\protected@file@percent }
\newlabel{eqn:2corrfun}{{1.5}{7}{Correlation Functions}{equation.1.2.5}{}}
\newlabel{eqn:2corrfun@cref}{{[equation][5][1]1.5}{[1][7][]7}}
\BKM@entry{id=7,dest={636861707465722E32},srcline={1}}{526573756C74732066726F6D20537461746973746963616C204D656368616E696373}
\BKM@entry{id=8,dest={73656374696F6E2E322E31},srcline={2}}{546865204973696E67204D6F64656C}
\BKM@entry{id=9,dest={73756273656374696F6E2E322E312E31},srcline={19}}{4F627365727661626C6573}
\@writefile{toc}{\contentsline {chapter}{\numberline {2}Results from Statistical Mechanics}{8}{chapter.2}\protected@file@percent }
\@writefile{lof}{\addvspace {10\p@ }}
\@writefile{lot}{\addvspace {10\p@ }}
\@writefile{toc}{\contentsline {section}{\numberline {2.1}The Ising Model}{8}{section.2.1}\protected@file@percent }
\newlabel{eqn:probboi}{{2.1}{8}{The Ising Model}{equation.2.1.1}{}}
\newlabel{eqn:probboi@cref}{{[equation][1][2]2.1}{[1][8][]8}}
\@writefile{toc}{\contentsline {subsection}{\numberline {2.1.1}Observables}{8}{subsection.2.1.1}\protected@file@percent }
\newlabel{eqn:anlobs}{{2.3}{8}{Observables}{equation.2.1.3}{}}
\newlabel{eqn:anlobs@cref}{{[equation][3][2]2.3}{[1][8][]8}}
\BKM@entry{id=10,dest={73756273656374696F6E2E322E312E32},srcline={49}}{5068617365205472616E736974696F6E7320696E20746865204973696E67204D6F64656C}
\citation{friedli_statistical_2017}
\citation{lavis_statistical_1999}
\citation{dobrushin_addendum:_1966}
\citation{friedli_statistical_2017}
\citation{onsager_crystal_1944}
\BKM@entry{id=11,dest={73656374696F6E2E322E32},srcline={97}}{546865205859204D6F64656C}
\@writefile{toc}{\contentsline {subsection}{\numberline {2.1.2}Phase Transitions in the Ising Model}{9}{subsection.2.1.2}\protected@file@percent }
\@writefile{toc}{\contentsline {section}{\numberline {2.2}The XY Model}{9}{section.2.2}\protected@file@percent }
\@writefile{lof}{\contentsline {figure}{\numberline {2.1}{\ignorespaces \relax }}{10}{figure.caption.3}\protected@file@percent }
\newlabel{fig:full1}{{2.1}{10}{\relax }{figure.caption.3}{}}
\newlabel{fig:full1@cref}{{[figure][1][2]2.1}{[1][9][]10}}
\@writefile{lof}{\contentsline {figure}{\numberline {2.2}{\ignorespaces \relax }}{10}{figure.caption.4}\protected@file@percent }
\newlabel{fig:reduced1}{{2.2}{10}{\relax }{figure.caption.4}{}}
\newlabel{fig:reduced1@cref}{{[figure][2][2]2.2}{[1][9][]10}}
\BKM@entry{id=12,dest={636861707465722E33},srcline={1}}{4D6F6E7465204361726C6F2053696D756C6174696F6E73}
\BKM@entry{id=13,dest={73656374696F6E2E332E31},srcline={2}}{546865204D6F6E7465204361726C6F204D6574686F64}
\BKM@entry{id=14,dest={73756273656374696F6E2E332E312E31},srcline={27}}{54686520457374696D61746F72}
\@writefile{toc}{\contentsline {chapter}{\numberline {3}Monte Carlo Simulations}{11}{chapter.3}\protected@file@percent }
\@writefile{lof}{\addvspace {10\p@ }}
\@writefile{lot}{\addvspace {10\p@ }}
\@writefile{toc}{\contentsline {section}{\numberline {3.1}The Monte Carlo Method}{11}{section.3.1}\protected@file@percent }
\@writefile{toc}{\contentsline {subsection}{\numberline {3.1.1}The Estimator}{11}{subsection.3.1.1}\protected@file@percent }
\citation{binder_monte_1986,newman_monte_1999}
\BKM@entry{id=15,dest={73756273656374696F6E2E332E312E32},srcline={56}}{496D706F7274616E63652053616D706C696E67}
\citation{newman_monte_1999}
\BKM@entry{id=16,dest={73756273656374696F6E2E332E312E33},srcline={76}}{4D61726B6F762050726F63657373}
\@writefile{toc}{\contentsline {subsection}{\numberline {3.1.2}Importance Sampling}{12}{subsection.3.1.2}\protected@file@percent }
\newlabel{eqn:estimator}{{3.4}{12}{Importance Sampling}{equation.3.1.4}{}}
\newlabel{eqn:estimator@cref}{{[equation][4][3]3.4}{[1][12][]12}}
\BKM@entry{id=17,dest={73756273656374696F6E2E332E312E34},srcline={107}}{44657461696C65642042616C616E6365205C303436204572676F646963697479}
\citation{binder_monte_1986}
\@writefile{toc}{\contentsline {subsection}{\numberline {3.1.3}Markov Process}{13}{subsection.3.1.3}\protected@file@percent }
\newlabel{eqn:summboi}{{3.5}{13}{Markov Process}{equation.3.1.5}{}}
\newlabel{eqn:summboi@cref}{{[equation][5][3]3.5}{[1][13][]13}}
\@writefile{toc}{\contentsline {subsection}{\numberline {3.1.4}Detailed Balance \& Ergodicity}{13}{subsection.3.1.4}\protected@file@percent }
\newlabel{eqn:otherboi}{{3.7}{13}{Detailed Balance \& Ergodicity}{equation.3.1.7}{}}
\newlabel{eqn:otherboi@cref}{{[equation][7][3]3.7}{[1][13][]13}}
\newlabel{eqn:bigboieqn}{{3.13}{14}{Detailed Balance \& Ergodicity}{equation.3.1.13}{}}
\newlabel{eqn:bigboieqn@cref}{{[equation][13][3]3.13}{[1][14][]14}}
\BKM@entry{id=18,dest={73656374696F6E2E332E32},srcline={192}}{416C676F726974686D73}
\BKM@entry{id=19,dest={73756273656374696F6E2E332E322E31},srcline={193}}{4D6574726F706F6C697320416C676F726974686D}
\citation{metropolis_equation_1953}
\citation{lavis_statistical_1999}
\@writefile{toc}{\contentsline {section}{\numberline {3.2}Algorithms}{15}{section.3.2}\protected@file@percent }
\@writefile{toc}{\contentsline {subsection}{\numberline {3.2.1}Metropolis Algorithm}{15}{subsection.3.2.1}\protected@file@percent }
\newlabel{eqn:accept}{{3.16}{15}{Metropolis Algorithm}{equation.3.2.16}{}}
\newlabel{eqn:accept@cref}{{[equation][16][3]3.16}{[1][15][]15}}
\@writefile{lof}{\contentsline {figure}{\numberline {3.1}{\ignorespaces Energy as function of accepting spin flip. Reproduced from REF XXX\relax }}{16}{figure.caption.5}\protected@file@percent }
\newlabel{fig:annealing}{{3.1}{16}{Energy as function of accepting spin flip. Reproduced from REF XXX\relax }{figure.caption.5}{}}
\newlabel{fig:annealing@cref}{{[figure][1][3]3.1}{[1][16][]16}}
\BKM@entry{id=20,dest={73756273656374696F6E2E332E322E32},srcline={292}}{576F6C666620436C757374657220416C676F726974686D}
\citation{wolff_comparison_1989}
\@writefile{toc}{\contentsline {subsection}{\numberline {3.2.2}Wolff Cluster Algorithm}{17}{subsection.3.2.2}\protected@file@percent }
\@writefile{toc}{\contentsline {subsubsection}{Critical Slowing Down}{17}{section*.6}\protected@file@percent }
\@writefile{toc}{\contentsline {subsubsection}{The Algorithm}{17}{section*.8}\protected@file@percent }
\@writefile{lof}{\contentsline {figure}{\numberline {3.2}{\ignorespaces Two spin configurations that differ by the flip of a Wolff cluster. The bonds that are destroyed/created during the transition belong to the boundary of the cluster\relax }}{18}{figure.caption.7}\protected@file@percent }
\newlabel{fig:wolff}{{3.2}{18}{Two spin configurations that differ by the flip of a Wolff cluster. The bonds that are destroyed/created during the transition belong to the boundary of the cluster\relax }{figure.caption.7}{}}
\newlabel{fig:wolff@cref}{{[figure][2][3]3.2}{[1][17][]18}}
\newlabel{eqn:longboi}{{3.21}{18}{The Algorithm}{equation.3.2.21}{}}
\newlabel{eqn:longboi@cref}{{[equation][21][3]3.21}{[1][18][]18}}
\BKM@entry{id=21,dest={636861707465722E34},srcline={1}}{436F6D7075746174696F6E616C20526573756C747320666F7220746865204973696E67204D6F64656C}
\BKM@entry{id=22,dest={73656374696F6E2E342E31},srcline={2}}{4175746F636F7272656C6174696F6E73}
\citation{binder_monte_1986}
\@writefile{toc}{\contentsline {chapter}{\numberline {4}Computational Results for the Ising Model}{20}{chapter.4}\protected@file@percent }
\@writefile{lof}{\addvspace {10\p@ }}
\@writefile{lot}{\addvspace {10\p@ }}
\@writefile{toc}{\contentsline {section}{\numberline {4.1}Autocorrelations}{20}{section.4.1}\protected@file@percent }
\citation{binder_monte_1986}
\BKM@entry{id=23,dest={73656374696F6E2E342E32},srcline={76}}{546865726D616C697A6174696F6E}
\newlabel{fig:autocorr1}{{4.1a}{21}{Log Autocorrelation for the Metropolis Algorithm\relax }{figure.caption.9}{}}
\newlabel{fig:autocorr1@cref}{{[subfigure][1][4,1]4.1a}{[1][21][]21}}
\newlabel{sub@fig:autocorr1}{{a}{21}{Log Autocorrelation for the Metropolis Algorithm\relax }{figure.caption.9}{}}
\newlabel{sub@fig:autocorr1@cref}{{[subfigure][1][4,1]4.1a}{[1][21][]21}}
\newlabel{fig:autocorr2}{{4.1b}{21}{Log Autocorrelation for the Wolff Cluster Algorithm\relax }{figure.caption.9}{}}
\newlabel{fig:autocorr2@cref}{{[subfigure][2][4,1]4.1b}{[1][21][]21}}
\newlabel{sub@fig:autocorr2}{{b}{21}{Log Autocorrelation for the Wolff Cluster Algorithm\relax }{figure.caption.9}{}}
\newlabel{sub@fig:autocorr2@cref}{{[subfigure][2][4,1]4.1b}{[1][21][]21}}
\@writefile{lof}{\contentsline {figure}{\numberline {4.1}{\ignorespaces Log of the magnetization autocorrelation function: $\qopname  \relax o{ln}(A_M(t))$ for various values of temperature above $T_c$. The black lines are exponential fits of the data. The inset plot is $A(t)$.\relax }}{21}{figure.caption.9}\protected@file@percent }
\newlabel{fig:test}{{4.1}{21}{Log of the magnetization autocorrelation function: $\ln (A_M(t))$ for various values of temperature above $T_c$. The black lines are exponential fits of the data. The inset plot is $A(t)$.\relax }{figure.caption.9}{}}
\newlabel{fig:test@cref}{{[figure][1][4]4.1}{[1][21][]21}}
\@writefile{toc}{\contentsline {section}{\numberline {4.2}Thermalization}{21}{section.4.2}\protected@file@percent }
\BKM@entry{id=24,dest={73656374696F6E2E342E33},srcline={133}}{537461746973746963616C204572726F7273}
\newlabel{fig:hotstart1}{{4.2a}{22}{A hot start for the $2-d$ Ising Model on the square lattice.\relax }{figure.caption.10}{}}
\newlabel{fig:hotstart1@cref}{{[subfigure][1][4,2]4.2a}{[1][22][]22}}
\newlabel{sub@fig:hotstart1}{{a}{22}{A hot start for the $2-d$ Ising Model on the square lattice.\relax }{figure.caption.10}{}}
\newlabel{sub@fig:hotstart1@cref}{{[subfigure][1][4,2]4.2a}{[1][22][]22}}
\newlabel{fig:coldstart2}{{4.2b}{22}{A cold start for the same model.\relax }{figure.caption.10}{}}
\newlabel{fig:coldstart2@cref}{{[subfigure][2][4,2]4.2b}{[1][22][]22}}
\newlabel{sub@fig:coldstart2}{{b}{22}{A cold start for the same model.\relax }{figure.caption.10}{}}
\newlabel{sub@fig:coldstart2@cref}{{[subfigure][2][4,2]4.2b}{[1][22][]22}}
\@writefile{lof}{\contentsline {figure}{\numberline {4.2}{\ignorespaces A comparision of the hot and cold starts for the Metropolis algorithm for a variery of temperatures. $l=24$\relax }}{22}{figure.caption.10}\protected@file@percent }
\newlabel{fig:therm1}{{4.2}{22}{A comparision of the hot and cold starts for the Metropolis algorithm for a variery of temperatures. $l=24$\relax }{figure.caption.10}{}}
\newlabel{fig:therm1@cref}{{[figure][2][4]4.2}{[1][22][]22}}
\citation{newman_monte_1999}
\BKM@entry{id=25,dest={73656374696F6E2E342E34},srcline={160}}{4F627365727661626C6573}
\@writefile{lof}{\contentsline {figure}{\numberline {4.3}{\ignorespaces Thermalization of $4$ hot starts with a different seed, for $T=1.3$ and $l=24$. When the values of the observables (this case, the magnetization) converge, we say that the system has thermalized.\relax }}{23}{figure.caption.11}\protected@file@percent }
\newlabel{fig:randomseeds}{{4.3}{23}{Thermalization of $4$ hot starts with a different seed, for $T=1.3$ and $l=24$. When the values of the observables (this case, the magnetization) converge, we say that the system has thermalized.\relax }{figure.caption.11}{}}
\newlabel{fig:randomseeds@cref}{{[figure][3][4]4.3}{[1][22][]23}}
\@writefile{toc}{\contentsline {section}{\numberline {4.3}Statistical Errors}{23}{section.4.3}\protected@file@percent }
\BKM@entry{id=26,dest={73756273656374696F6E2E342E342E31},srcline={170}}{4D61676E6574697A6174696F6E}
\@writefile{toc}{\contentsline {section}{\numberline {4.4}Observables}{24}{section.4.4}\protected@file@percent }
\@writefile{toc}{\contentsline {subsection}{\numberline {4.4.1}Magnetization}{24}{subsection.4.4.1}\protected@file@percent }
\newlabel{fig:mag1}{{4.4a}{24}{The Metropolis Algorithm\relax }{figure.caption.12}{}}
\newlabel{fig:mag1@cref}{{[subfigure][1][4,4]4.4a}{[1][24][]24}}
\newlabel{sub@fig:mag1}{{a}{24}{The Metropolis Algorithm\relax }{figure.caption.12}{}}
\newlabel{sub@fig:mag1@cref}{{[subfigure][1][4,4]4.4a}{[1][24][]24}}
\newlabel{fig:mag2}{{4.4b}{24}{The Wollf-Cluster Algorithm\relax }{figure.caption.12}{}}
\newlabel{fig:mag2@cref}{{[subfigure][2][4,4]4.4b}{[1][24][]24}}
\newlabel{sub@fig:mag2}{{b}{24}{The Wollf-Cluster Algorithm\relax }{figure.caption.12}{}}
\newlabel{sub@fig:mag2@cref}{{[subfigure][2][4,4]4.4b}{[1][24][]24}}
\@writefile{lof}{\contentsline {figure}{\numberline {4.4}{\ignorespaces Spontaneous Magnetization of the Ising Model for both Metropolis and Wolff-Cluster Algorithms, for various lattice sizes $L$. The vertical black line indicates $T_c$\relax }}{24}{figure.caption.12}\protected@file@percent }
\newlabel{fig:magnet}{{4.4}{24}{Spontaneous Magnetization of the Ising Model for both Metropolis and Wolff-Cluster Algorithms, for various lattice sizes $L$. The vertical black line indicates $T_c$\relax }{figure.caption.12}{}}
\newlabel{fig:magnet@cref}{{[figure][4][4]4.4}{[1][24][]24}}
\BKM@entry{id=27,dest={73756273656374696F6E2E342E342E32},srcline={212}}{456E65726779}
\BKM@entry{id=28,dest={73756273656374696F6E2E342E342E33},srcline={232}}{537573636570746962696C69747920616E6420486561742D4361706163697479}
\BKM@entry{id=29,dest={73756273656374696F6E2E342E342E34},srcline={273}}{5468652042696E6465722043756D756C616E7473}
\citation{binder_monte_1986}
\@writefile{toc}{\contentsline {subsection}{\numberline {4.4.2}Energy}{25}{subsection.4.4.2}\protected@file@percent }
\newlabel{fig:ene1}{{4.5a}{25}{The Metropolis Algorithm\relax }{figure.caption.13}{}}
\newlabel{fig:ene1@cref}{{[subfigure][1][4,5]4.5a}{[1][25][]25}}
\newlabel{sub@fig:ene1}{{a}{25}{The Metropolis Algorithm\relax }{figure.caption.13}{}}
\newlabel{sub@fig:ene1@cref}{{[subfigure][1][4,5]4.5a}{[1][25][]25}}
\newlabel{fig:ene2}{{4.5b}{25}{The Wollf-Cluster Algorithm\relax }{figure.caption.13}{}}
\newlabel{fig:ene2@cref}{{[subfigure][2][4,5]4.5b}{[1][25][]25}}
\newlabel{sub@fig:ene2}{{b}{25}{The Wollf-Cluster Algorithm\relax }{figure.caption.13}{}}
\newlabel{sub@fig:ene2@cref}{{[subfigure][2][4,5]4.5b}{[1][25][]25}}
\@writefile{lof}{\contentsline {figure}{\numberline {4.5}{\ignorespaces The energy per site for various lattice sizes $L$. The black line represents $T_c$. The variability of the energy for various lattice sizes is much smaller than for the magnetization\relax }}{25}{figure.caption.13}\protected@file@percent }
\newlabel{fig:energy}{{4.5}{25}{The energy per site for various lattice sizes $L$. The black line represents $T_c$. The variability of the energy for various lattice sizes is much smaller than for the magnetization\relax }{figure.caption.13}{}}
\newlabel{fig:energy@cref}{{[figure][5][4]4.5}{[1][25][]25}}
\@writefile{toc}{\contentsline {subsection}{\numberline {4.4.3}Susceptibility and Heat-Capacity}{25}{subsection.4.4.3}\protected@file@percent }
\@writefile{toc}{\contentsline {subsection}{\numberline {4.4.4}The Binder Cumulants}{25}{subsection.4.4.4}\protected@file@percent }
\BKM@entry{id=30,dest={73756273656374696F6E2E342E342E35},srcline={323}}{437269746963616C20536C6F77696E6720446F776E}
\newlabel{fig:sus1}{{4.6a}{26}{The Metropolis Algorithm\relax }{figure.caption.14}{}}
\newlabel{fig:sus1@cref}{{[subfigure][1][4,6]4.6a}{[1][25][]26}}
\newlabel{sub@fig:sus1}{{a}{26}{The Metropolis Algorithm\relax }{figure.caption.14}{}}
\newlabel{sub@fig:sus1@cref}{{[subfigure][1][4,6]4.6a}{[1][25][]26}}
\newlabel{fig:sus2}{{4.6b}{26}{The Wollf-Cluster Algorithm\relax }{figure.caption.14}{}}
\newlabel{fig:sus2@cref}{{[subfigure][2][4,6]4.6b}{[1][25][]26}}
\newlabel{sub@fig:sus2}{{b}{26}{The Wollf-Cluster Algorithm\relax }{figure.caption.14}{}}
\newlabel{sub@fig:sus2@cref}{{[subfigure][2][4,6]4.6b}{[1][25][]26}}
\@writefile{lof}{\contentsline {figure}{\numberline {4.6}{\ignorespaces The energy per site for various lattice sizes $L$. The black line represents $T_c$. The variability of the energy for various lattice sizes is much smaller than for the magnetization\relax }}{26}{figure.caption.14}\protected@file@percent }
\newlabel{fig:suscept}{{4.6}{26}{The energy per site for various lattice sizes $L$. The black line represents $T_c$. The variability of the energy for various lattice sizes is much smaller than for the magnetization\relax }{figure.caption.14}{}}
\newlabel{fig:suscept@cref}{{[figure][6][4]4.6}{[1][25][]26}}
\@writefile{lot}{\contentsline {table}{\numberline {4.1}{\ignorespaces $\xi $ and $C$ about $T_c$\relax }}{26}{table.caption.19}\protected@file@percent }
\@writefile{toc}{\contentsline {subsection}{\numberline {4.4.5}Critical Slowing Down}{26}{subsection.4.4.5}\protected@file@percent }
\newlabel{fig:heat1}{{4.7a}{27}{The Metropolis Algorithm\relax }{figure.caption.15}{}}
\newlabel{fig:heat1@cref}{{[subfigure][1][4,7]4.7a}{[1][25][]27}}
\newlabel{sub@fig:heat1}{{a}{27}{The Metropolis Algorithm\relax }{figure.caption.15}{}}
\newlabel{sub@fig:heat1@cref}{{[subfigure][1][4,7]4.7a}{[1][25][]27}}
\newlabel{fig:heat2}{{4.7b}{27}{The Wollf-Cluster Algorithm\relax }{figure.caption.15}{}}
\newlabel{fig:heat2@cref}{{[subfigure][2][4,7]4.7b}{[1][25][]27}}
\newlabel{sub@fig:heat2}{{b}{27}{The Wollf-Cluster Algorithm\relax }{figure.caption.15}{}}
\newlabel{sub@fig:heat2@cref}{{[subfigure][2][4,7]4.7b}{[1][25][]27}}
\@writefile{lof}{\contentsline {figure}{\numberline {4.7}{\ignorespaces The energy per site for various lattice sizes $L$. The black line represents $T_c$. The variability of the energy for various lattice sizes is much smaller than for the magnetization\relax }}{27}{figure.caption.15}\protected@file@percent }
\newlabel{fig:heatcap}{{4.7}{27}{The energy per site for various lattice sizes $L$. The black line represents $T_c$. The variability of the energy for various lattice sizes is much smaller than for the magnetization\relax }{figure.caption.15}{}}
\newlabel{fig:heatcap@cref}{{[figure][7][4]4.7}{[1][25][]27}}
\newlabel{fig:bindb1}{{4.8a}{27}{The Metropolis Algorithm\relax }{figure.caption.16}{}}
\newlabel{fig:bindb1@cref}{{[subfigure][1][4,8]4.8a}{[1][26][]27}}
\newlabel{sub@fig:bindb1}{{a}{27}{The Metropolis Algorithm\relax }{figure.caption.16}{}}
\newlabel{sub@fig:bindb1@cref}{{[subfigure][1][4,8]4.8a}{[1][26][]27}}
\newlabel{fig:bindb2}{{4.8b}{27}{The Wollf-Cluster Algorithm\relax }{figure.caption.16}{}}
\newlabel{fig:bindb2@cref}{{[subfigure][2][4,8]4.8b}{[1][26][]27}}
\newlabel{sub@fig:bindb2}{{b}{27}{The Wollf-Cluster Algorithm\relax }{figure.caption.16}{}}
\newlabel{sub@fig:bindb2@cref}{{[subfigure][2][4,8]4.8b}{[1][26][]27}}
\@writefile{lof}{\contentsline {figure}{\numberline {4.8}{\ignorespaces The energy per site for various lattice sizes $L$. The black line represents $T_c$. The variability of the energy for various lattice sizes is much smaller than for the magnetization\relax }}{27}{figure.caption.16}\protected@file@percent }
\newlabel{fig:binderbig}{{4.8}{27}{The energy per site for various lattice sizes $L$. The black line represents $T_c$. The variability of the energy for various lattice sizes is much smaller than for the magnetization\relax }{figure.caption.16}{}}
\newlabel{fig:binderbig@cref}{{[figure][8][4]4.8}{[1][26][]27}}
\newlabel{fig:binds1}{{4.9a}{28}{The Metropolis Algorithm\relax }{figure.caption.17}{}}
\newlabel{fig:binds1@cref}{{[subfigure][1][4,9]4.9a}{[1][26][]28}}
\newlabel{sub@fig:binds1}{{a}{28}{The Metropolis Algorithm\relax }{figure.caption.17}{}}
\newlabel{sub@fig:binds1@cref}{{[subfigure][1][4,9]4.9a}{[1][26][]28}}
\newlabel{fig:binds2}{{4.9b}{28}{The Wollf-Cluster Algorithm\relax }{figure.caption.17}{}}
\newlabel{fig:binds2@cref}{{[subfigure][2][4,9]4.9b}{[1][26][]28}}
\newlabel{sub@fig:binds2}{{b}{28}{The Wollf-Cluster Algorithm\relax }{figure.caption.17}{}}
\newlabel{sub@fig:binds2@cref}{{[subfigure][2][4,9]4.9b}{[1][26][]28}}
\@writefile{lof}{\contentsline {figure}{\numberline {4.9}{\ignorespaces The energy per site for various lattice sizes $L$. The black line represents $T_c$. The variability of the energy for various lattice sizes is much smaller than for the magnetization\relax }}{28}{figure.caption.17}\protected@file@percent }
\newlabel{fig:bindersmall}{{4.9}{28}{The energy per site for various lattice sizes $L$. The black line represents $T_c$. The variability of the energy for various lattice sizes is much smaller than for the magnetization\relax }{figure.caption.17}{}}
\newlabel{fig:bindersmall@cref}{{[figure][9][4]4.9}{[1][26][]28}}
\@writefile{lof}{\contentsline {figure}{\numberline {4.10}{\ignorespaces Integrated correlation time as function of lattice size $L$, for both the Metropolis and Wolff Cluster Algorithms. The black line indicates exponential fits for $z$\relax }}{28}{figure.caption.18}\protected@file@percent }
\newlabel{fig:intcorr}{{4.10}{28}{Integrated correlation time as function of lattice size $L$, for both the Metropolis and Wolff Cluster Algorithms. The black line indicates exponential fits for $z$\relax }{figure.caption.18}{}}
\newlabel{fig:intcorr@cref}{{[figure][10][4]4.10}{[1][26][]28}}
\BKM@entry{id=31,dest={636861707465722E35},srcline={1}}{436F6D7075746174696F6E616C20526573756C747320666F7220746865205859204D6F64656C}
\BKM@entry{id=32,dest={73656374696F6E2E352E31},srcline={3}}{4D6574726F706F6C697320416C676F726974686D}
\bibdata{src/citations}
\@writefile{toc}{\contentsline {chapter}{\numberline {5}Computational Results for the XY Model}{29}{chapter.5}\protected@file@percent }
\@writefile{lof}{\addvspace {10\p@ }}
\@writefile{lot}{\addvspace {10\p@ }}
\@writefile{toc}{\contentsline {section}{\numberline {5.1}Metropolis Algorithm}{29}{section.5.1}\protected@file@percent }
\bibcite{baxter_exactly_2007}{1}
\bibcite{binder_monte_1986}{2}
\bibcite{dobrushin_addendum:_1966}{3}
\bibcite{friedli_statistical_2017}{4}
\bibcite{ising_beitrag_1925}{5}
\bibcite{lavis_statistical_1999}{6}
\bibcite{mermin_absence_1966}{7}
\bibcite{metropolis_equation_1953}{8}
\bibcite{newman_monte_1999}{9}
\bibcite{onsager_crystal_1944}{10}
\bibcite{peierls_isings_1936}{11}
\bibcite{wolff_comparison_1989}{12}
\bibstyle{plain}
\gdef \@abspage@last{34}
