<?xml version="1.0" encoding="UTF-8" standalone="no"?>
<svg
   xmlns:dc="http://purl.org/dc/elements/1.1/"
   xmlns:cc="http://creativecommons.org/ns#"
   xmlns:rdf="http://www.w3.org/1999/02/22-rdf-syntax-ns#"
   xmlns:svg="http://www.w3.org/2000/svg"
   xmlns="http://www.w3.org/2000/svg"
   xmlns:sodipodi="http://sodipodi.sourceforge.net/DTD/sodipodi-0.dtd"
   xmlns:inkscape="http://www.inkscape.org/namespaces/inkscape"
   width="62.780365mm"
   height="32.15052mm"
   viewBox="0 0 62.780366 32.150521"
   version="1.1"
   id="svg880"
   inkscape:version="1.0.2 (e86c870879, 2021-01-15)"
   sodipodi:docname="fullphase.svg">
  <defs
     id="defs874">
    <marker
       style="overflow:visible"
       id="marker3348"
       refX="0"
       refY="0"
       orient="auto"
       inkscape:stockid="Arrow1Mstart"
       inkscape:isstock="true">
      <path
         transform="matrix(0.4,0,0,0.4,4,0)"
         style="fill:#000000;fill-opacity:1;fill-rule:evenodd;stroke:#000000;stroke-width:1pt;stroke-opacity:1"
         d="M 0,0 5,-5 -12.5,0 5,5 Z"
         id="path3346" />
    </marker>
    <marker
       style="overflow:visible"
       id="Arrow2Lstart"
       refX="0"
       refY="0"
       orient="auto"
       inkscape:stockid="Arrow2Lstart"
       inkscape:isstock="true">
      <path
         transform="matrix(1.1,0,0,1.1,1.1,0)"
         d="M 8.7185878,4.0337352 -2.2072895,0.01601326 8.7185884,-4.0017078 c -1.7454984,2.3720609 -1.7354408,5.6174519 -6e-7,8.035443 z"
         style="fill:#000000;fill-opacity:1;fill-rule:evenodd;stroke:#000000;stroke-width:0.625;stroke-linejoin:round;stroke-opacity:1"
         id="path1493" />
    </marker>
    <marker
       style="overflow:visible"
       id="marker3258"
       refX="0"
       refY="0"
       orient="auto"
       inkscape:stockid="Arrow1Mstart"
       inkscape:isstock="true">
      <path
         transform="matrix(0.4,0,0,0.4,4,0)"
         style="fill:#000000;fill-opacity:1;fill-rule:evenodd;stroke:#000000;stroke-width:1pt;stroke-opacity:1"
         d="M 0,0 5,-5 -12.5,0 5,5 Z"
         id="path3256" />
    </marker>
    <inkscape:path-effect
       effect="mirror_symmetry"
       start_point="52.083334,135.27083"
       end_point="89.125002,135.27083"
       center_point="70.604168,135.27083"
       id="path-effect2686"
       is_visible="true"
       lpeversion="1"
       mode="free"
       discard_orig_path="false"
       fuse_paths="false"
       oposite_fuse="false"
       split_items="false" />
    <marker
       style="overflow:visible"
       id="marker2115"
       refX="0"
       refY="0"
       orient="auto"
       inkscape:stockid="Arrow1Mstart"
       inkscape:isstock="true"
       inkscape:collect="always">
      <path
         transform="matrix(0.4,0,0,0.4,4,0)"
         style="fill:#000000;fill-opacity:1;fill-rule:evenodd;stroke:#000000;stroke-width:1pt;stroke-opacity:1"
         d="M 0,0 5,-5 -12.5,0 5,5 Z"
         id="path2113" />
    </marker>
    <marker
       style="overflow:visible"
       id="marker2057"
       refX="0"
       refY="0"
       orient="auto"
       inkscape:stockid="Arrow1Mend"
       inkscape:isstock="true">
      <path
         transform="matrix(-0.4,0,0,-0.4,-4,0)"
         style="fill:#000000;fill-opacity:1;fill-rule:evenodd;stroke:#000000;stroke-width:1pt;stroke-opacity:1"
         d="M 0,0 5,-5 -12.5,0 5,5 Z"
         id="path2055" />
    </marker>
    <marker
       style="overflow:visible"
       id="Arrow1Mstart"
       refX="0"
       refY="0"
       orient="auto"
       inkscape:stockid="Arrow1Mstart"
       inkscape:isstock="true">
      <path
         transform="matrix(0.4,0,0,0.4,4,0)"
         style="fill:#000000;fill-opacity:1;fill-rule:evenodd;stroke:#000000;stroke-width:1pt;stroke-opacity:1"
         d="M 0,0 5,-5 -12.5,0 5,5 Z"
         id="path1481" />
    </marker>
  </defs>
  <sodipodi:namedview
     id="base"
     pagecolor="#ffffff"
     bordercolor="#666666"
     borderopacity="1.0"
     inkscape:pageopacity="0.0"
     inkscape:pageshadow="2"
     inkscape:zoom="4.6937381"
     inkscape:cx="105.70943"
     inkscape:cy="41.613535"
     inkscape:document-units="mm"
     inkscape:current-layer="layer4"
     inkscape:document-rotation="0"
     showgrid="true"
     inkscape:window-width="1348"
     inkscape:window-height="729"
     inkscape:window-x="8"
     inkscape:window-y="29"
     inkscape:window-maximized="0"
     fit-margin-top="0"
     fit-margin-left="0"
     fit-margin-right="0"
     fit-margin-bottom="0" />
  <metadata
     id="metadata877">
    <rdf:RDF>
      <cc:Work
         rdf:about="">
        <dc:format>image/svg+xml</dc:format>
        <dc:type
           rdf:resource="http://purl.org/dc/dcmitype/StillImage" />
        <dc:title></dc:title>
      </cc:Work>
    </rdf:RDF>
  </metadata>
  <g
     inkscape:groupmode="layer"
     id="layer3"
     inkscape:label="Layer 3"
     style="display:inline"
     transform="translate(-69.288227,-127.11843)">
    <path
       style="fill:none;stroke:#000000;stroke-width:0.264583;stroke-linecap:butt;stroke-linejoin:miter;stroke-miterlimit:4;stroke-dasharray:none;stroke-opacity:1"
       d="m 82.327955,150.38756 v 0"
       id="path2678"
       sodipodi:nodetypes="cc" />
    <path
       style="fill:#999999;fill-opacity:1;stroke:#000000;stroke-width:0.420194;stroke-linecap:butt;stroke-linejoin:miter;stroke-miterlimit:4;stroke-dasharray:none;stroke-opacity:1"
       d="M 52.083332,135.27083 V 124.6875 c 0,0 25.294823,0.99978 31.145525,3.64441 5.795236,2.61956 5.896144,6.93893 5.896144,6.93893 v 0 m -37.041669,-1e-5 v 10.58333 c 0,0 25.294823,-0.99978 31.145525,-3.64441 5.795236,-2.61956 5.896144,-6.93893 5.896144,-6.93893 v 0"
       id="path2684"
       sodipodi:nodetypes="ccscc"
       inkscape:original-d="M 52.083332,135.27083 V 124.6875 c 0,0 25.294823,0.99978 31.145525,3.64441 5.795236,2.61956 5.896144,6.93893 5.896144,6.93893 v 0"
       inkscape:path-effect="#path-effect2686"
       transform="matrix(0.59950584,0,0,0.66135045,51.103693,53.926827)" />
  </g>
  <g
     inkscape:label="Layer 1"
     inkscape:groupmode="layer"
     id="layer1"
     style="display:inline;opacity:0.998"
     transform="translate(-69.288227,-127.11843)">
    <path
       style="fill:none;stroke:#000000;stroke-width:0.264583;stroke-linecap:butt;stroke-linejoin:miter;stroke-miterlimit:4;stroke-dasharray:none;stroke-opacity:1"
       d="m 82.327956,143.38825 22.206694,1e-5"
       id="path1445"
       sodipodi:nodetypes="cc" />
    <path
       style="fill:none;stroke:#000000;stroke-width:0.264583;stroke-linecap:butt;stroke-linejoin:miter;stroke-miterlimit:4;stroke-dasharray:none;stroke-opacity:1;marker-start:url(#marker2115)"
       d="m 82.327956,127.63984 v 15.74841"
       id="path1447"
       sodipodi:nodetypes="cc" />
    <path
       style="fill:none;stroke:#000000;stroke-width:0.264583;stroke-linecap:butt;stroke-linejoin:miter;stroke-miterlimit:4;stroke-dasharray:none;stroke-opacity:1;marker-start:url(#Arrow1Mstart)"
       d="m 69.638413,157.38684 12.689543,-13.99859 v 0 0"
       id="path1449" />
    <ellipse
       style="opacity:0.995;fill:#000000;stroke:#000000;stroke-width:0.264583;stroke-linecap:square;stroke-linejoin:round;stroke-miterlimit:4;stroke-dasharray:none;stroke-dashoffset:0"
       id="path1471"
       ry="0.52494019"
       rx="0.47585776"
       cy="143.38824"
       cx="104.53465" />
    <path
       style="fill:none;stroke:#000000;stroke-width:0.264583;stroke-linecap:butt;stroke-linejoin:miter;stroke-miterlimit:4;stroke-dasharray:0.264583, 0.79375;stroke-dashoffset:0;stroke-opacity:1;marker-end:url(#marker2057)"
       d="m 105.01051,143.38825 h 19.35155"
       id="path1473"
       sodipodi:nodetypes="cc" />
  </g>
  <g
     inkscape:groupmode="layer"
     id="layer2"
     inkscape:label="Layer 2"
     style="display:inline;opacity:1"
     transform="translate(-69.288227,-127.11843)">
    <path
       style="fill:none;stroke:#000000;stroke-width:0.264583;stroke-linecap:butt;stroke-linejoin:miter;stroke-miterlimit:4;stroke-dasharray:none;stroke-opacity:1"
       d="m 82.327955,136.38896 7.930964,-8.74912"
       id="path2520"
       sodipodi:nodetypes="cc" />
    <path
       style="fill:none;stroke:#000000;stroke-width:0.264583;stroke-linecap:butt;stroke-linejoin:miter;stroke-miterlimit:4;stroke-dasharray:none;stroke-opacity:1"
       d="M 74.396993,159.13666 H 111.67252"
       id="path2518-3-6"
       sodipodi:nodetypes="cc" />
    <path
       style="fill:none;stroke:#000000;stroke-width:0.264583;stroke-linecap:butt;stroke-linejoin:miter;stroke-miterlimit:4;stroke-dasharray:none;stroke-opacity:1"
       d="m 90.258917,127.63984 h 31.723853 v 0 h 5.55167"
       id="path2564"
       sodipodi:nodetypes="cccc" />
    <path
       style="fill:none;stroke:#000000;stroke-width:0.264583;stroke-linecap:butt;stroke-linejoin:miter;stroke-miterlimit:4;stroke-dasharray:none;stroke-opacity:1"
       d="m 111.67252,159.13666 c 15.86192,-17.49823 15.86192,-17.49823 15.86192,-17.49823 v 0 0"
       id="path2566" />
    <path
       style="fill:none;stroke:#000000;stroke-width:0.264583;stroke-linecap:butt;stroke-linejoin:miter;stroke-miterlimit:4;stroke-dasharray:none;stroke-opacity:1"
       d="m 127.53444,141.63843 c 0,-13.99859 0,-13.99859 0,-13.99859 v 0 0"
       id="path2568" />
    <path
       style="fill:none;stroke:#000000;stroke-width:0.264583;stroke-linecap:butt;stroke-linejoin:miter;stroke-miterlimit:4;stroke-dasharray:none;stroke-opacity:1"
       d="m 74.396992,159.13666 c 7.930963,-8.74912 7.930963,-8.74912 7.930963,-8.74912"
       id="path2638" />
    <path
       style="fill:none;stroke:#000000;stroke-width:0.264583;stroke-linecap:butt;stroke-linejoin:miter;stroke-miterlimit:4;stroke-dasharray:none;stroke-opacity:1"
       d="m 111.67252,159.13666 c 0,0 3.44907,-4.9218 4.98566,-8.12574 1.02172,-2.1304 1.89137,-4.8076 2.9453,-7.62267 1.21634,-3.24885 2.36661,-6.17968 3.69904,-8.79788 1.09106,-2.14391 4.23192,-6.95053 4.23192,-6.95053"
       id="path2713"
       sodipodi:nodetypes="csssc" />
    <path
       style="display:inline;fill:none;stroke:#000000;stroke-width:0.264583;stroke-linecap:butt;stroke-linejoin:miter;stroke-miterlimit:4;stroke-dasharray:none;stroke-opacity:1"
       d="m 96.689923,159.08709 c 0,0 5.356467,-5.58102 6.893047,-8.78495 1.02173,-2.1304 0.95037,-3.4611 0.98403,-6.50659 0.0425,-3.84067 -0.34617,-7.0449 2.46195,-10.13575 1.57774,-1.73658 5.5229,-6.06952 5.5229,-6.06952"
       id="path2713-6"
       sodipodi:nodetypes="csssc" />
    <path
       style="display:inline;fill:none;stroke:#000000;stroke-width:0.264583;stroke-linecap:butt;stroke-linejoin:miter;stroke-miterlimit:4;stroke-dasharray:none;stroke-opacity:1"
       d="m 91.534087,137.06263 c 0,0 0.179389,-1.46931 1.918321,-3.27314 1.738932,-1.80383 5.444062,-6.15824 5.444062,-6.15824"
       id="path2520-2"
       sodipodi:nodetypes="czc" />
    <path
       style="display:inline;fill:none;stroke:#000000;stroke-width:0.264583;stroke-linecap:butt;stroke-linejoin:miter;stroke-miterlimit:4;stroke-dasharray:none;stroke-opacity:1"
       d="m 91.530647,149.61626 c 0,0 -0.17939,1.4693 -1.918323,3.27314 -1.738927,1.80383 -5.444059,6.15824 -5.444059,6.15824"
       id="path2520-2-9"
       sodipodi:nodetypes="czc" />
  </g>
  <g
     inkscape:groupmode="layer"
     id="layer4"
     inkscape:label="Layer 4"
     style="display:inline;opacity:0.998"
     transform="translate(-39.108949,-16.702922)">
    <text
       xml:space="preserve"
       style="font-style:normal;font-weight:normal;font-size:3.88056px;line-height:1.25;font-family:sans-serif;display:inline;fill:#000000;fill-opacity:1;stroke:none;stroke-width:0.264583"
       x="47.858433"
       y="24.349533"
       id="text2813"><tspan
         sodipodi:role="line"
         id="tspan2811"
         x="47.858433"
         y="24.349533"
         style="font-size:3.88056px;stroke-width:0.264583">$\frac{\partial f}{\partial h}$</tspan></text>
    <text
       xml:space="preserve"
       style="font-style:normal;font-weight:normal;font-size:3.88056px;line-height:1.25;font-family:sans-serif;display:inline;fill:#000000;fill-opacity:1;stroke:none;stroke-width:0.264583"
       x="56.117184"
       y="35.928703"
       id="text2821"><tspan
         sodipodi:role="line"
         id="tspan2819"
         x="56.117184"
         y="35.928703"
         style="font-size:3.88056px;stroke-width:0.264583">$T = \frac{1}{\beta}$</tspan></text>
    <text
       xml:space="preserve"
       style="font-style:normal;font-weight:normal;font-size:3.88056px;line-height:1.25;font-family:sans-serif;display:inline;fill:#000000;fill-opacity:1;stroke:none;stroke-width:0.264583"
       x="45.295082"
       y="38.509769"
       id="text2817"><tspan
         sodipodi:role="line"
         id="tspan2815"
         x="45.295082"
         y="38.509769"
         style="font-size:3.88056px;stroke-width:0.264583">$h$</tspan></text>
    <text
       xml:space="preserve"
       style="font-style:normal;font-weight:normal;font-size:3.88056px;line-height:1.25;font-family:sans-serif;fill:#000000;fill-opacity:1;stroke:none;stroke-width:0.264583"
       x="77.066841"
       y="30.752884"
       id="text3246"><tspan
         sodipodi:role="line"
         id="tspan3244"
         x="77.066841"
         y="30.752884"
         style="font-size:3.88056px;stroke-width:0.264583">$T_c$</tspan></text>
    <path
       style="fill:none;stroke:#000000;stroke-width:0.264583px;stroke-linecap:butt;stroke-linejoin:miter;stroke-opacity:1;marker-start:url(#marker3348)"
       d="M 74.831232,32.972741 77.065896,30.83689"
       id="path3248"
       sodipodi:nodetypes="cc" />
  </g>
</svg>
