<?xml version="1.0" encoding="UTF-8" standalone="no"?>
<svg
   xmlns:dc="http://purl.org/dc/elements/1.1/"
   xmlns:cc="http://creativecommons.org/ns#"
   xmlns:rdf="http://www.w3.org/1999/02/22-rdf-syntax-ns#"
   xmlns:svg="http://www.w3.org/2000/svg"
   xmlns="http://www.w3.org/2000/svg"
   xmlns:sodipodi="http://sodipodi.sourceforge.net/DTD/sodipodi-0.dtd"
   xmlns:inkscape="http://www.inkscape.org/namespaces/inkscape"
   width="58.472916mm"
   height="58.472919mm"
   viewBox="0 0 58.472916 58.472919"
   version="1.1"
   id="svg8"
   inkscape:version="1.0.2 (e86c870879, 2021-01-15, custom)"
   sodipodi:docname="wolff1.svg">
  <defs
     id="defs2" />
  <sodipodi:namedview
     id="base"
     pagecolor="#ffffff"
     bordercolor="#666666"
     borderopacity="1.0"
     inkscape:pageopacity="0.0"
     inkscape:pageshadow="2"
     inkscape:zoom="2.02"
     inkscape:cx="107.6446"
     inkscape:cy="112.87011"
     inkscape:document-units="mm"
     inkscape:current-layer="layer3"
     inkscape:document-rotation="0"
     showgrid="true"
     fit-margin-top="0"
     fit-margin-left="0"
     fit-margin-right="0"
     fit-margin-bottom="0"
     inkscape:window-width="669"
     inkscape:window-height="729"
     inkscape:window-x="8"
     inkscape:window-y="29"
     inkscape:window-maximized="0">
    <inkscape:grid
       type="xygrid"
       id="grid3580"
       originx="29.236457"
       originy="29.236459" />
  </sodipodi:namedview>
  <metadata
     id="metadata5">
    <rdf:RDF>
      <cc:Work
         rdf:about="">
        <dc:format>image/svg+xml</dc:format>
        <dc:type
           rdf:resource="http://purl.org/dc/dcmitype/StillImage" />
        <dc:title></dc:title>
      </cc:Work>
    </rdf:RDF>
  </metadata>
  <g
     inkscape:label="Layer 1"
     inkscape:groupmode="layer"
     id="layer1"
     style="display:none;opacity:0.98"
     transform="translate(-32.107292,-22.690626)">
    <path
       style="fill:none;stroke:#000000;stroke-width:0.264583;stroke-linecap:butt;stroke-linejoin:miter;stroke-miterlimit:4;stroke-dasharray:0.529166, 0.264583, 0.132291, 0.264583;stroke-dashoffset:0;stroke-opacity:1"
       d="m 33.5625,24.145833 v 55.5625"
       id="path979"
       sodipodi:nodetypes="cc" />
    <path
       style="fill:none;stroke:#000000;stroke-width:0.264583;stroke-linecap:butt;stroke-linejoin:miter;stroke-miterlimit:4;stroke-dasharray:0.529166, 0.264583, 0.132291, 0.264583;stroke-dashoffset:0;stroke-opacity:1"
       d="M 33.562499,24.145833 H 89.125"
       id="path983"
       sodipodi:nodetypes="cc" />
    <path
       style="display:inline;opacity:0.98;fill:none;stroke:#000000;stroke-width:0.264583;stroke-linecap:butt;stroke-linejoin:miter;stroke-miterlimit:4;stroke-dasharray:0.529166, 0.264583, 0.132291, 0.264583;stroke-dashoffset:0;stroke-opacity:1"
       d="M 33.5625,32.083333 H 89.125"
       id="path983-8"
       sodipodi:nodetypes="cc" />
    <path
       style="display:inline;opacity:0.98;fill:none;stroke:#000000;stroke-width:0.264583;stroke-linecap:butt;stroke-linejoin:miter;stroke-miterlimit:4;stroke-dasharray:0.529166, 0.264583, 0.132291, 0.264583;stroke-dashoffset:0;stroke-opacity:1"
       d="M 33.562499,40.020833 H 89.125"
       id="path983-7"
       sodipodi:nodetypes="cc" />
    <path
       style="display:inline;opacity:0.98;fill:none;stroke:#000000;stroke-width:0.264583;stroke-linecap:butt;stroke-linejoin:miter;stroke-miterlimit:4;stroke-dasharray:0.529166, 0.264583, 0.132291, 0.264583;stroke-dashoffset:0;stroke-opacity:1"
       d="M 33.5625,47.958333 H 89.125"
       id="path983-8-9"
       sodipodi:nodetypes="cc" />
    <path
       style="display:inline;opacity:0.98;fill:none;stroke:#000000;stroke-width:0.264583;stroke-linecap:butt;stroke-linejoin:miter;stroke-miterlimit:4;stroke-dasharray:0.529166, 0.264583, 0.132291, 0.264583;stroke-dashoffset:0;stroke-opacity:1"
       d="M 33.5625,55.895833 H 89.125"
       id="path983-2"
       sodipodi:nodetypes="cc" />
    <path
       style="display:inline;opacity:0.98;fill:none;stroke:#000000;stroke-width:0.264583;stroke-linecap:butt;stroke-linejoin:miter;stroke-miterlimit:4;stroke-dasharray:0.529166, 0.264583, 0.132291, 0.264583;stroke-dashoffset:0;stroke-opacity:1"
       d="M 33.562501,63.833333 H 89.125"
       id="path983-8-0"
       sodipodi:nodetypes="cc" />
    <path
       style="display:inline;opacity:0.98;fill:none;stroke:#000000;stroke-width:0.264583;stroke-linecap:butt;stroke-linejoin:miter;stroke-miterlimit:4;stroke-dasharray:0.529166, 0.264583, 0.132291, 0.264583;stroke-dashoffset:0;stroke-opacity:1"
       d="M 33.5625,71.770833 H 89.125"
       id="path983-7-2"
       sodipodi:nodetypes="cc" />
    <path
       style="display:inline;opacity:0.98;fill:none;stroke:#000000;stroke-width:0.264583;stroke-linecap:butt;stroke-linejoin:miter;stroke-miterlimit:4;stroke-dasharray:0.529166, 0.264583, 0.132291, 0.264583;stroke-dashoffset:0;stroke-opacity:1"
       d="M 33.562501,79.708333 H 89.125"
       id="path983-8-9-3"
       sodipodi:nodetypes="cc" />
    <path
       style="fill:none;stroke:#000000;stroke-width:0.264583;stroke-linecap:butt;stroke-linejoin:miter;stroke-miterlimit:4;stroke-dasharray:0.529166, 0.264583, 0.132291, 0.264583;stroke-dashoffset:0;stroke-opacity:1"
       d="m 41.499998,24.145833 c 0,55.562499 0,55.562499 0,55.562499"
       id="path1102" />
    <path
       style="display:inline;opacity:0.98;fill:none;stroke:#000000;stroke-width:0.264583;stroke-linecap:butt;stroke-linejoin:miter;stroke-miterlimit:4;stroke-dasharray:0.529166, 0.264583, 0.132291, 0.264583;stroke-dashoffset:0;stroke-opacity:1"
       d="m 49.4375,24.145833 v 55.5625"
       id="path979-7"
       sodipodi:nodetypes="cc" />
    <path
       style="display:inline;opacity:0.98;fill:none;stroke:#000000;stroke-width:0.264583;stroke-linecap:butt;stroke-linejoin:miter;stroke-miterlimit:4;stroke-dasharray:0.529166, 0.264583, 0.132291, 0.264583;stroke-dashoffset:0;stroke-opacity:1"
       d="m 57.374998,24.145833 c 0,55.562499 0,55.562499 0,55.562499"
       id="path1102-5" />
    <path
       style="display:inline;opacity:0.98;fill:none;stroke:#000000;stroke-width:0.264583;stroke-linecap:butt;stroke-linejoin:miter;stroke-miterlimit:4;stroke-dasharray:0.529166, 0.264583, 0.132291, 0.264583;stroke-dashoffset:0;stroke-opacity:1"
       d="m 65.312502,24.145833 v 55.5625"
       id="path979-9"
       sodipodi:nodetypes="cc" />
    <path
       style="display:inline;opacity:0.98;fill:none;stroke:#000000;stroke-width:0.264583;stroke-linecap:butt;stroke-linejoin:miter;stroke-miterlimit:4;stroke-dasharray:0.529166, 0.264583, 0.132291, 0.264583;stroke-dashoffset:0;stroke-opacity:1"
       d="m 73.25,24.145833 c 0,55.562499 0,55.562499 0,55.562499"
       id="path1102-2" />
    <path
       style="display:inline;opacity:0.98;fill:none;stroke:#000000;stroke-width:0.264583;stroke-linecap:butt;stroke-linejoin:miter;stroke-miterlimit:4;stroke-dasharray:0.529166, 0.264583, 0.132291, 0.264583;stroke-dashoffset:0;stroke-opacity:1"
       d="m 81.187502,24.145833 v 55.5625"
       id="path979-7-2"
       sodipodi:nodetypes="cc" />
    <path
       style="display:inline;opacity:0.98;fill:none;stroke:#000000;stroke-width:0.264583;stroke-linecap:butt;stroke-linejoin:miter;stroke-miterlimit:4;stroke-dasharray:0.529166, 0.264583, 0.132291, 0.264583;stroke-dashoffset:0;stroke-opacity:1"
       d="m 89.125,24.145833 c 0,55.562499 0,55.562499 0,55.562499"
       id="path1102-5-8" />
  </g>
  <g
     inkscape:groupmode="layer"
     id="layer3"
     inkscape:label="Lines"
     style="display:inline;opacity:0.998"
     transform="translate(-32.107292,-22.690626)">
    <path
       style="fill:none;stroke:#000000;stroke-width:0.79375;stroke-linecap:butt;stroke-linejoin:miter;stroke-miterlimit:4;stroke-dasharray:none;stroke-opacity:1"
       d="m 49.437498,54.572915 c 0,-5.291666 0,-5.291666 0,-5.291666"
       id="path1769" />
    <path
       style="fill:none;stroke:#000000;stroke-width:0.79375;stroke-linecap:butt;stroke-linejoin:miter;stroke-miterlimit:4;stroke-dasharray:none;stroke-opacity:1"
       d="m 57.375,62.510417 -2e-6,-21.166668"
       id="path1771"
       sodipodi:nodetypes="cc" />
    <path
       style="fill:none;stroke:#000000;stroke-width:0.79375;stroke-linecap:butt;stroke-linejoin:miter;stroke-miterlimit:4;stroke-dasharray:none;stroke-opacity:1"
       d="m 65.312498,70.447915 c 0,-21.166666 0,-21.166666 0,-21.166666"
       id="path1773" />
    <path
       style="fill:none;stroke:#000000;stroke-width:0.79375;stroke-linecap:butt;stroke-linejoin:miter;stroke-miterlimit:4;stroke-dasharray:none;stroke-opacity:1"
       d="m 73.249998,62.510415 c 0,-13.229166 0,-13.229166 0,-13.229166"
       id="path1775" />
    <path
       style="fill:none;stroke:#000000;stroke-width:0.79375;stroke-linecap:butt;stroke-linejoin:miter;stroke-miterlimit:4;stroke-dasharray:none;stroke-opacity:1"
       d="m 50.760415,55.895832 c 29.104166,0 29.104166,0 29.104166,0"
       id="path1777" />
    <path
       style="fill:none;stroke:#000000;stroke-width:0.79375;stroke-linecap:butt;stroke-linejoin:miter;stroke-miterlimit:4;stroke-dasharray:none;stroke-opacity:1"
       d="m 50.760415,47.958332 c 21.166666,0 21.166666,0 21.166666,0"
       id="path1779" />
    <path
       style="fill:none;stroke:#000000;stroke-width:0.79375;stroke-linecap:butt;stroke-linejoin:miter;stroke-miterlimit:4;stroke-dasharray:none;stroke-opacity:1"
       d="m 58.697915,63.833332 c 13.229166,0 13.229166,0 13.229166,0"
       id="path1781" />
    <path
       style="fill:none;stroke:#ff0000;stroke-width:0.264583px;stroke-linecap:butt;stroke-linejoin:miter;stroke-opacity:1"
       d="M 81.187498,54.572915 V 49.281249"
       id="path1801" />
    <path
       style="fill:none;stroke:#ff0000;stroke-width:0.264583px;stroke-linecap:butt;stroke-linejoin:miter;stroke-opacity:1"
       d="m 58.697915,40.020832 h 5.291667"
       id="path1803" />
    <path
       style="display:inline;fill:none;stroke:#ff0000;stroke-width:0.264583px;stroke-linecap:butt;stroke-linejoin:miter;stroke-opacity:1"
       d="M 48.114582,47.958332 H 42.822915"
       id="path1807" />
    <path
       style="display:inline;fill:none;stroke:#ff0000;stroke-width:0.264583px;stroke-linecap:butt;stroke-linejoin:miter;stroke-opacity:1"
       d="M 65.312498,46.635415 V 41.343749"
       id="path1805" />
    <path
       style="display:inline;fill:none;stroke:#ff0000;stroke-width:0.264583px;stroke-linecap:butt;stroke-linejoin:miter;stroke-opacity:1"
       d="m 74.572915,47.958332 h 5.291666"
       id="path1809" />
    <path
       style="fill:none;stroke:#ff0000;stroke-width:0.264583px;stroke-linecap:butt;stroke-linejoin:miter;stroke-opacity:1"
       d="m 66.635415,71.770832 h 5.291666"
       id="path1947" />
    <path
       style="fill:none;stroke:#ff0000;stroke-width:0.264583px;stroke-linecap:butt;stroke-linejoin:miter;stroke-opacity:1"
       d="m 73.249998,65.156249 v 5.291666"
       id="path1949" />
  </g>
  <g
     inkscape:groupmode="layer"
     id="layer2"
     inkscape:label="Dots"
     style="display:inline"
     transform="translate(-32.107292,-22.690626)">
    <circle
       style="fill:#000000;stroke:#000000;stroke-width:0.264583;stroke-linecap:square;stroke-linejoin:round;stroke-miterlimit:4;stroke-dasharray:none"
       id="path981"
       cx="33.5625"
       cy="24.145834"
       r="1.3229166" />
    <circle
       style="display:inline;opacity:0.98;fill:#000000;stroke:#000000;stroke-width:0.264583;stroke-linecap:square;stroke-linejoin:round;stroke-miterlimit:4;stroke-dasharray:none"
       id="path985"
       cx="33.5625"
       cy="32.083332"
       r="1.3229166" />
    <circle
       style="display:inline;fill:#000000;stroke:#000000;stroke-width:0.264583;stroke-linecap:square;stroke-linejoin:round;stroke-miterlimit:4;stroke-dasharray:none"
       id="path981-9"
       cx="41.5"
       cy="24.145834"
       r="1.3229166" />
    <circle
       style="display:inline;opacity:0.98;fill:#000000;stroke:#000000;stroke-width:0.264583;stroke-linecap:square;stroke-linejoin:round;stroke-miterlimit:4;stroke-dasharray:none"
       id="path985-7"
       cx="41.5"
       cy="32.083332"
       r="1.3229166" />
    <circle
       style="display:inline;fill:#ffffff;stroke:#000000;stroke-width:0.264583;stroke-linecap:square;stroke-linejoin:round;stroke-miterlimit:4;stroke-dasharray:none"
       id="path981-3"
       cx="41.5"
       cy="40.020832"
       r="1.3229166" />
    <circle
       style="display:inline;opacity:0.98;fill:#ffffff;stroke:#000000;stroke-width:0.264583;stroke-linecap:square;stroke-linejoin:round;stroke-miterlimit:4;stroke-dasharray:none"
       id="path985-6"
       cx="33.5625"
       cy="47.958332"
       r="1.3229166" />
    <circle
       style="display:inline;fill:#ffffff;stroke:#000000;stroke-width:0.264583;stroke-linecap:square;stroke-linejoin:round;stroke-miterlimit:4;stroke-dasharray:none"
       id="path981-9-1"
       cx="33.5625"
       cy="40.020832"
       r="1.3229166" />
    <circle
       style="display:inline;opacity:0.98;fill:#000000;stroke:#000000;stroke-width:0.264583;stroke-linecap:square;stroke-linejoin:round;stroke-miterlimit:4;stroke-dasharray:none"
       id="path985-7-2"
       cx="41.5"
       cy="47.958332"
       r="1.3229166" />
    <circle
       style="display:inline;fill:#ffffff;stroke:#000000;stroke-width:0.264583;stroke-linecap:square;stroke-linejoin:round;stroke-miterlimit:4;stroke-dasharray:none"
       id="path981-93"
       cx="49.4375"
       cy="24.145834"
       r="1.3229166" />
    <circle
       style="display:inline;opacity:0.98;fill:#ffffff;stroke:#000000;stroke-width:0.264583;stroke-linecap:square;stroke-linejoin:round;stroke-miterlimit:4;stroke-dasharray:none"
       id="path985-1"
       cx="49.4375"
       cy="32.083332"
       r="1.3229166" />
    <circle
       style="display:inline;fill:#ffffff;stroke:#000000;stroke-width:0.264583;stroke-linecap:square;stroke-linejoin:round;stroke-miterlimit:4;stroke-dasharray:none"
       id="path981-9-9"
       cx="57.375"
       cy="24.145834"
       r="1.3229166" />
    <circle
       style="display:inline;opacity:0.98;fill:#ffffff;stroke:#000000;stroke-width:0.264583;stroke-linecap:square;stroke-linejoin:round;stroke-miterlimit:4;stroke-dasharray:none"
       id="path985-7-4"
       cx="57.375"
       cy="32.083332"
       r="1.3229166" />
    <circle
       style="display:inline;fill:#000000;stroke:#000000;stroke-width:0.264583;stroke-linecap:square;stroke-linejoin:round;stroke-miterlimit:4;stroke-dasharray:none"
       id="path981-3-7"
       cx="57.375"
       cy="40.020832"
       r="1.3229166" />
    <circle
       style="display:inline;opacity:0.98;fill:#000000;stroke:#000000;stroke-width:0.264583;stroke-linecap:square;stroke-linejoin:round;stroke-miterlimit:4;stroke-dasharray:none"
       id="path985-6-8"
       cx="49.4375"
       cy="47.958332"
       r="1.3229166" />
    <circle
       style="display:inline;fill:#ffffff;stroke:#000000;stroke-width:0.264583;stroke-linecap:square;stroke-linejoin:round;stroke-miterlimit:4;stroke-dasharray:none"
       id="path981-9-1-4"
       cx="49.4375"
       cy="40.020832"
       r="1.3229166" />
    <circle
       style="display:inline;opacity:0.98;fill:#000000;stroke:#000000;stroke-width:0.264583;stroke-linecap:square;stroke-linejoin:round;stroke-miterlimit:4;stroke-dasharray:none"
       id="path985-7-2-5"
       cx="57.375"
       cy="47.958332"
       r="1.3229166" />
    <circle
       style="display:inline;fill:#ffffff;stroke:#000000;stroke-width:0.264583;stroke-linecap:square;stroke-linejoin:round;stroke-miterlimit:4;stroke-dasharray:none"
       id="path981-0"
       cx="65.3125"
       cy="24.145834"
       r="1.3229166" />
    <circle
       style="display:inline;opacity:0.98;fill:#ffffff;stroke:#000000;stroke-width:0.264583;stroke-linecap:square;stroke-linejoin:round;stroke-miterlimit:4;stroke-dasharray:none"
       id="path985-3"
       cx="65.3125"
       cy="32.083332"
       r="1.3229166" />
    <circle
       style="display:inline;fill:#000000;stroke:#000000;stroke-width:0.264583;stroke-linecap:square;stroke-linejoin:round;stroke-miterlimit:4;stroke-dasharray:none"
       id="path981-9-6"
       cx="73.25"
       cy="24.145834"
       r="1.3229166" />
    <circle
       style="display:inline;opacity:0.98;fill:#000000;stroke:#000000;stroke-width:0.264583;stroke-linecap:square;stroke-linejoin:round;stroke-miterlimit:4;stroke-dasharray:none"
       id="path985-7-1"
       cx="73.25"
       cy="32.083332"
       r="1.3229166" />
    <circle
       style="display:inline;fill:#ffffff;stroke:#000000;stroke-width:0.264583;stroke-linecap:square;stroke-linejoin:round;stroke-miterlimit:4;stroke-dasharray:none"
       id="path981-3-0"
       cx="73.25"
       cy="40.020832"
       r="1.3229166" />
    <circle
       style="display:inline;opacity:0.98;fill:#000000;stroke:#000000;stroke-width:0.264583;stroke-linecap:square;stroke-linejoin:round;stroke-miterlimit:4;stroke-dasharray:none"
       id="path985-6-6"
       cx="65.3125"
       cy="47.958332"
       r="1.3229166" />
    <circle
       style="display:inline;fill:#000000;stroke:#000000;stroke-width:0.264583;stroke-linecap:square;stroke-linejoin:round;stroke-miterlimit:4;stroke-dasharray:none"
       id="path981-9-1-3"
       cx="65.3125"
       cy="40.020832"
       r="1.3229166" />
    <circle
       style="display:inline;opacity:0.98;fill:#000000;stroke:#000000;stroke-width:0.264583;stroke-linecap:square;stroke-linejoin:round;stroke-miterlimit:4;stroke-dasharray:none"
       id="path985-7-2-2"
       r="1.3229166"
       cy="47.958332"
       cx="73.25" />
    <circle
       style="display:inline;fill:#000000;stroke:#000000;stroke-width:0.264583;stroke-linecap:square;stroke-linejoin:round;stroke-miterlimit:4;stroke-dasharray:none"
       id="path981-93-0"
       cx="81.1875"
       cy="24.145834"
       r="1.3229166" />
    <circle
       style="display:inline;opacity:0.98;fill:#ffffff;stroke:#000000;stroke-width:0.264583;stroke-linecap:square;stroke-linejoin:round;stroke-miterlimit:4;stroke-dasharray:none"
       id="path985-1-6"
       cx="81.1875"
       cy="32.083332"
       r="1.3229166" />
    <circle
       style="display:inline;fill:#ffffff;stroke:#000000;stroke-width:0.264583;stroke-linecap:square;stroke-linejoin:round;stroke-miterlimit:4;stroke-dasharray:none"
       id="path981-9-9-1"
       cx="89.125"
       cy="24.145834"
       r="1.3229166" />
    <circle
       style="display:inline;opacity:0.98;fill:#ffffff;stroke:#000000;stroke-width:0.264583;stroke-linecap:square;stroke-linejoin:round;stroke-miterlimit:4;stroke-dasharray:none"
       id="path985-7-4-5"
       cx="89.125"
       cy="32.083332"
       r="1.3229166" />
    <circle
       style="display:inline;fill:#000000;stroke:#000000;stroke-width:0.264583;stroke-linecap:square;stroke-linejoin:round;stroke-miterlimit:4;stroke-dasharray:none"
       id="path981-3-7-5"
       cx="89.125"
       cy="40.020832"
       r="1.3229166" />
    <circle
       style="display:inline;opacity:0.98;fill:#000000;stroke:#000000;stroke-width:0.264583;stroke-linecap:square;stroke-linejoin:round;stroke-miterlimit:4;stroke-dasharray:none"
       id="path985-6-8-4"
       cx="81.1875"
       cy="47.958332"
       r="1.3229166" />
    <circle
       style="display:inline;fill:#ffffff;stroke:#000000;stroke-width:0.264583;stroke-linecap:square;stroke-linejoin:round;stroke-miterlimit:4;stroke-dasharray:none"
       id="path981-9-1-4-7"
       cx="81.1875"
       cy="40.020832"
       r="1.3229166" />
    <circle
       style="display:inline;opacity:0.98;fill:#ffffff;stroke:#000000;stroke-width:0.264583;stroke-linecap:square;stroke-linejoin:round;stroke-miterlimit:4;stroke-dasharray:none"
       id="path985-7-2-5-6"
       cx="89.125"
       cy="47.958332"
       r="1.3229166" />
    <circle
       style="display:inline;fill:#000000;stroke:#000000;stroke-width:0.264583;stroke-linecap:square;stroke-linejoin:round;stroke-miterlimit:4;stroke-dasharray:none"
       id="path981-939"
       cx="33.5625"
       cy="55.895832"
       r="1.3229166" />
    <circle
       style="display:inline;opacity:0.98;fill:#ffffff;stroke:#000000;stroke-width:0.264583;stroke-linecap:square;stroke-linejoin:round;stroke-miterlimit:4;stroke-dasharray:none"
       id="path985-0"
       cx="33.5625"
       cy="63.833332"
       r="1.3229166" />
    <circle
       style="display:inline;fill:#ffffff;stroke:#000000;stroke-width:0.264583;stroke-linecap:square;stroke-linejoin:round;stroke-miterlimit:4;stroke-dasharray:none"
       id="path981-9-8"
       cx="41.5"
       cy="55.895832"
       r="1.3229166" />
    <circle
       style="display:inline;opacity:0.98;fill:#ffffff;stroke:#000000;stroke-width:0.264583;stroke-linecap:square;stroke-linejoin:round;stroke-miterlimit:4;stroke-dasharray:none"
       id="path985-7-8"
       cx="41.5"
       cy="63.833332"
       r="1.3229166" />
    <circle
       style="display:inline;fill:#000000;stroke:#000000;stroke-width:0.264583;stroke-linecap:square;stroke-linejoin:round;stroke-miterlimit:4;stroke-dasharray:none"
       id="path981-3-5"
       cx="41.5"
       cy="71.770836"
       r="1.3229166" />
    <circle
       style="display:inline;opacity:0.98;fill:#ffffff;stroke:#000000;stroke-width:0.264583;stroke-linecap:square;stroke-linejoin:round;stroke-miterlimit:4;stroke-dasharray:none"
       id="path985-6-0"
       cx="33.5625"
       cy="79.708336"
       r="1.3229166" />
    <circle
       style="display:inline;fill:#000000;stroke:#000000;stroke-width:0.264583;stroke-linecap:square;stroke-linejoin:round;stroke-miterlimit:4;stroke-dasharray:none"
       id="path981-9-1-9"
       cx="33.5625"
       cy="71.770836"
       r="1.3229166" />
    <circle
       style="display:inline;opacity:0.98;fill:#000000;stroke:#000000;stroke-width:0.264583;stroke-linecap:square;stroke-linejoin:round;stroke-miterlimit:4;stroke-dasharray:none"
       id="path985-7-2-6"
       cx="41.5"
       cy="79.708336"
       r="1.3229166" />
    <circle
       style="display:inline;fill:#000000;stroke:#000000;stroke-width:0.264583;stroke-linecap:square;stroke-linejoin:round;stroke-miterlimit:4;stroke-dasharray:none"
       id="path981-93-3"
       cx="49.4375"
       cy="55.895832"
       r="1.3229166" />
    <circle
       style="display:inline;opacity:0.98;fill:#ffffff;stroke:#000000;stroke-width:0.264583;stroke-linecap:square;stroke-linejoin:round;stroke-miterlimit:4;stroke-dasharray:none"
       id="path985-1-8"
       cx="49.4375"
       cy="63.833332"
       r="1.3229166" />
    <circle
       style="display:inline;fill:#000000;stroke:#000000;stroke-width:0.264583;stroke-linecap:square;stroke-linejoin:round;stroke-miterlimit:4;stroke-dasharray:none"
       id="path981-9-9-5"
       cx="57.375"
       cy="55.895832"
       r="1.3229166" />
    <circle
       style="display:inline;opacity:0.98;fill:#000000;stroke:#000000;stroke-width:0.264583;stroke-linecap:square;stroke-linejoin:round;stroke-miterlimit:4;stroke-dasharray:none"
       id="path985-7-4-6"
       cx="57.375"
       cy="63.833332"
       r="1.3229166" />
    <circle
       style="display:inline;fill:#ffffff;stroke:#000000;stroke-width:0.264583;stroke-linecap:square;stroke-linejoin:round;stroke-miterlimit:4;stroke-dasharray:none"
       id="path981-3-7-1"
       cx="57.375"
       cy="71.770836"
       r="1.3229166" />
    <circle
       style="display:inline;opacity:0.98;fill:#ffffff;stroke:#000000;stroke-width:0.264583;stroke-linecap:square;stroke-linejoin:round;stroke-miterlimit:4;stroke-dasharray:none"
       id="path985-6-8-1"
       cx="49.4375"
       cy="79.708336"
       r="1.3229166" />
    <circle
       style="display:inline;fill:#000000;stroke:#000000;stroke-width:0.264583;stroke-linecap:square;stroke-linejoin:round;stroke-miterlimit:4;stroke-dasharray:none"
       id="path981-9-1-4-5"
       cx="49.4375"
       cy="71.770836"
       r="1.3229166" />
    <circle
       style="display:inline;opacity:0.98;fill:#000000;stroke:#000000;stroke-width:0.264583;stroke-linecap:square;stroke-linejoin:round;stroke-miterlimit:4;stroke-dasharray:none"
       id="path985-7-2-5-9"
       cx="57.375"
       cy="79.708336"
       r="1.3229166" />
    <circle
       style="display:inline;fill:#000000;stroke:#000000;stroke-width:0.264583;stroke-linecap:square;stroke-linejoin:round;stroke-miterlimit:4;stroke-dasharray:none"
       id="path981-0-8"
       cx="65.3125"
       cy="55.895832"
       r="1.3229166" />
    <circle
       style="display:inline;opacity:0.98;fill:#000000;stroke:#000000;stroke-width:0.264583;stroke-linecap:square;stroke-linejoin:round;stroke-miterlimit:4;stroke-dasharray:none"
       id="path985-3-4"
       cx="65.3125"
       cy="63.833332"
       r="1.3229166" />
    <circle
       style="display:inline;fill:#000000;stroke:#000000;stroke-width:0.264583;stroke-linecap:square;stroke-linejoin:round;stroke-miterlimit:4;stroke-dasharray:none"
       id="path981-9-6-8"
       cx="73.25"
       cy="55.895832"
       r="1.3229166" />
    <circle
       style="display:inline;opacity:0.98;fill:#000000;stroke:#000000;stroke-width:0.264583;stroke-linecap:square;stroke-linejoin:round;stroke-miterlimit:4;stroke-dasharray:none"
       id="path985-7-1-1"
       cx="73.25"
       cy="63.833332"
       r="1.3229166" />
    <circle
       style="display:inline;fill:#000000;stroke:#000000;stroke-width:0.264583;stroke-linecap:square;stroke-linejoin:round;stroke-miterlimit:4;stroke-dasharray:none"
       id="path981-3-0-0"
       cx="73.25"
       cy="71.770836"
       r="1.3229166" />
    <circle
       style="display:inline;opacity:0.98;fill:#ffffff;stroke:#000000;stroke-width:0.264583;stroke-linecap:square;stroke-linejoin:round;stroke-miterlimit:4;stroke-dasharray:none"
       id="path985-6-6-3"
       cx="65.3125"
       cy="79.708336"
       r="1.3229166" />
    <circle
       style="display:inline;fill:#000000;stroke:#000000;stroke-width:0.264583;stroke-linecap:square;stroke-linejoin:round;stroke-miterlimit:4;stroke-dasharray:none"
       id="path981-9-1-3-0"
       cx="65.3125"
       cy="71.770836"
       r="1.3229166" />
    <circle
       style="display:inline;opacity:0.98;fill:#000000;stroke:#000000;stroke-width:0.264583;stroke-linecap:square;stroke-linejoin:round;stroke-miterlimit:4;stroke-dasharray:none"
       id="path985-7-2-2-4"
       r="1.3229166"
       cy="79.708336"
       cx="73.25" />
    <circle
       style="display:inline;fill:#000000;stroke:#000000;stroke-width:0.264583;stroke-linecap:square;stroke-linejoin:round;stroke-miterlimit:4;stroke-dasharray:none"
       id="path981-93-0-4"
       cx="81.1875"
       cy="55.895832"
       r="1.3229166" />
    <circle
       style="display:inline;opacity:0.98;fill:#ffffff;stroke:#000000;stroke-width:0.264583;stroke-linecap:square;stroke-linejoin:round;stroke-miterlimit:4;stroke-dasharray:none"
       id="path985-1-6-4"
       cx="81.1875"
       cy="63.833332"
       r="1.3229166" />
    <circle
       style="display:inline;fill:#ffffff;stroke:#000000;stroke-width:0.264583;stroke-linecap:square;stroke-linejoin:round;stroke-miterlimit:4;stroke-dasharray:none"
       id="path981-9-9-1-4"
       cx="89.125"
       cy="55.895832"
       r="1.3229166" />
    <circle
       style="display:inline;opacity:0.98;fill:#ffffff;stroke:#000000;stroke-width:0.264583;stroke-linecap:square;stroke-linejoin:round;stroke-miterlimit:4;stroke-dasharray:none"
       id="path985-7-4-5-7"
       cx="88.958847"
       cy="63.915012"
       r="1.3229166" />
    <circle
       style="display:inline;fill:#000000;stroke:#000000;stroke-width:0.264583;stroke-linecap:square;stroke-linejoin:round;stroke-miterlimit:4;stroke-dasharray:none"
       id="path981-3-7-5-6"
       cx="89.125"
       cy="71.770836"
       r="1.3229166" />
    <circle
       style="display:inline;opacity:0.98;fill:#000000;stroke:#000000;stroke-width:0.264583;stroke-linecap:square;stroke-linejoin:round;stroke-miterlimit:4;stroke-dasharray:none"
       id="path985-6-8-4-3"
       cx="81.1875"
       cy="79.708336"
       r="1.3229166" />
    <circle
       style="display:inline;fill:#ffffff;stroke:#000000;stroke-width:0.264583;stroke-linecap:square;stroke-linejoin:round;stroke-miterlimit:4;stroke-dasharray:none"
       id="path981-9-1-4-7-1"
       cx="81.1875"
       cy="71.770836"
       r="1.3229166" />
    <circle
       style="display:inline;opacity:0.98;fill:#000000;stroke:#000000;stroke-width:0.264583;stroke-linecap:square;stroke-linejoin:round;stroke-miterlimit:4;stroke-dasharray:none"
       id="path985-7-2-5-6-7"
       cx="89.125"
       cy="79.708336"
       r="1.3229166" />
  </g>
  <g
     inkscape:groupmode="layer"
     id="layer4"
     inkscape:label="Border"
     style="display:inline;opacity:0.999"
     transform="translate(-32.107292,-22.690626)">
    <path
       style="fill:none;stroke:#000000;stroke-width:0.264583;stroke-linecap:butt;stroke-linejoin:miter;stroke-miterlimit:4;stroke-dasharray:0.529166, 0.264583;stroke-dashoffset:0;stroke-opacity:1"
       d="m 45.468748,47.958332 v 11.90625 h 7.9375 v 7.9375 h 7.9375 v 7.9375 h 7.9375 v -7.9375 h 7.9375 v -7.9375 h 7.9375 v -7.9375 h -7.9375 v -7.9375 c -5.291667,0 -10.583333,0 -15.875,0 v -7.9375 h -7.9375 v 7.9375 h -7.9375 z"
       id="path1960"
       sodipodi:nodetypes="cccccccccccccccccccc" />
  </g>
</svg>
